\select@language {english}
\contentsline {chapter}{\numberline {1}QueryTool}{1}{chapter.1}
\contentsline {section}{\numberline {1.1}Specifications}{1}{section.1.1}
\contentsline {section}{\numberline {1.2}Implementation / API}{1}{section.1.2}
\contentsline {section}{\numberline {1.3}Conclusion}{11}{section.1.3}
\contentsline {chapter}{\numberline {2}Graph-traversal queries using the Queryhelp}{13}{chapter.2}
\contentsline {chapter}{\numberline {3}CP2K-Plugin}{15}{chapter.3}
\contentsline {chapter}{Python Module Index}{17}{section*.9}
